…
##Wrangling

full2 <- fulldata %>% na.omit %>% rename(`race/ethnicity` = "raceethnicity") %>% 
    separate("name", into = c("first_name", "last_name"), sep = " ") %>% 
    select(last_name, "race/ethnicity", age, state, armed) %>% 
    filter(armed == "No") %>% summarise(mean(age))

full1 <- fulldata %>% na.omit %>% select(gender, raceethnicity, 
    armed, age, hate_crimes_per_100k_splc, median_house_inc) %>% 
    arrange(desc(age)) %>% mutate(hate_income = (hate_crimes_per_100k_splc/median_house_inc))

fulldata %>% group_by(age) %>% summarise(mean(pop))

## # A tibble: 61 x 2
##      age `mean(pop)`
##    <int>       <dbl>
##  1    16       4503.
##  2    17       3149.
##  3    18       3020.
##  4    19       4258.
##  5    20       4506.
##  6    21       5079.
##  7    22       5068.
##  8    23       5907 
##  9    24       4903.
## 10    25       4316.
## # … with 51 more rows
…
fulldata %>% na.omit %>% group_by(raceethnicity) %>% summarise(median(age))

## # A tibble: 5 x 2
##   raceethnicity          `median(age)`
##   <chr>                          <dbl>
## 1 Asian/Pacific Islander            35
## 2 Black                             32
## 3 Hispanic/Latino                   31
## 4 Native American                   27
## 5 White                             39

fulldata %>% group_by(state) %>% summarise(n_distinct(age))

## # A tibble: 51 x 2
##    state `n_distinct(age)`
##    <chr>             <int>
##  1 AK                    1
##  2 AL                    8
##  3 AR                    4
##  4 AZ                   20
##  5 CA                   34
##  6 CO                    9
##  7 CT                    1
##  8 DC                    1
##  9 DE                    2
## 10 FL                   20
## # … with 41 more rows
…
## # A tibble: 8 x 2
##   armed              `var(median_house_inc)`
##   <chr>                                <dbl>
## 1 Disputed                        163461280.
## 2 Firearm                          68796358.
## 3 Knife                            56715205.
## 4 No                               53775562.
## 5 Non-lethal firearm               45981263.
## 6 Other                            77207900.
## 7 Vehicle                          52499581.
## 8 <NA>                             34012412.

fulldata %>% group_by(pop) %>% summarise(median(hate_crimes_per_100k_splc))

## # A tibble: 446 x 2
##      pop `median(hate_crimes_per_100k_splc)`
##    <int>                               <dbl>
##  1     0                               0.150
##  2   403                              NA    
##  3   678                               0.110
##  4   732                               0.188
##  5  1271                               0.351
##  6  1325                               0.185
##  7  1345                               0.110
##  8  1354                               0.256
##  9  1363                               0.214
## 10  1392                              NA    
## # … with 436 more rows

fulldata %>% group_by(county_income) %>% summarise(median(share_vote_trump))

## # A tibble: 300 x 2
##    county_income `median(share_vote_trump)`
##            <int>                      <dbl>
##  1         22545                      0.53 
##  2         24927                      0.53 
##  3         25498                      0.580
##  4         26877                      0.63 
##  5         29769                      0.63 
##  6         30164                      0.51 
##  7         30201                      0.65 
##  8         31163                      0.69 
##  9         31446                      0.580
## 10         31476                      0.5  
## # … with 290 more rows

fulldata %>% group_by(hate_crimes_per_100k_splc) %>% summarise(max(pop))

## # A tibble: 48 x 2
##    hate_crimes_per_100k_splc `max(pop)`
##                        <dbl>      <int>
##  1                    0.0674       7590
##  2                    0.0691       4227
##  3                    0.0783       8810
##  4                    0.0954         NA
##  5                    0.105        5378
##  6                    0.110        5375
##  7                    0.120       18168
##  8                    0.124       10818
##  9                    0.126        6971
## 10                    0.134        6888
## # … with 38 more rows

fulldata %>% group_by(hate_crimes_per_100k_splc) %>% summarise(share_vote_trump)

## # A tibble: 471 x 2
## # Groups:   hate_crimes_per_100k_splc [48]
##    hate_crimes_per_100k_splc share_vote_trump
##                        <dbl>            <dbl>
##  1                    0.0674            0.580
##  2                    0.0674            0.580
##  3                    0.0674            0.580
##  4                    0.0674            0.580
##  5                    0.0674            0.580
##  6                    0.0674            0.580
##  7                    0.0691            0.6  
##  8                    0.0691            0.6  
##  9                    0.0691            0.6  
## 10                    0.0691            0.6  
## # … with 461 more rows
…
